"Name","Path","Position","Is Active","Url Key","Description","Image","Page Title","Meta Keywords","Meta Description","Include In Menu","Display Mode","CMS Block","Is Anchor","Availabe Sort By","Default Sort By","Page Layout","Custom Layout Update"
"Xbox","Default Category/Video Games & Gaming Systems",,"Yes",,,,,,,"Yes","Products only",,"Yes",,,"2 columns with left bar",
"Playstation","Default Category/Video Games & Gaming Systems",,"Yes",,,,,,,"Yes","Products only",,"Yes",,,"2 columns with left bar",
"Wii","Default Category/Video Games & Gaming Systems",,"Yes",,,,,,,"Yes","Products only",,"Yes",,,"2 columns with left bar",
"Handheld","Default Category/Video Games & Gaming Systems",,"Yes",,,,,,,"Yes","Products only",,"Yes",,,"2 columns with left bar",
"PC & Mac","Default Category/Video Games & Gaming Systems",,"Yes",,,,,,,"Yes","Products only",,"Yes",,,"2 columns with left bar",
"Other","Default Category/Video Games & Gaming Systems",,"Yes",,,,,,,"Yes","Products only",,"Yes",,,"2 columns with left bar",
"Book","Default Category/Books & Audible",,"Yes",,,,,,,"Yes","Products only",,"Yes",,,"2 columns with left bar",
"Novels & Stores","Default Category/Books & Audible",,"Yes",,,,,,,"Yes","Products only",,"Yes",,,"2 columns with left bar",
"Audible","Default Category/Books & Audible",,"Yes",,,,,,,"Yes","Products only",,"Yes",,,"2 columns with left bar",
"Digital Books","Default Category/Books & Audible",,"Yes",,,,,,,"Yes","Products only",,"Yes",,,"2 columns with left bar",
"Magazines","Default Category/Books & Audible",,"Yes",,,,,,,"Yes","Products only",,"Yes",,,"2 columns with left bar",
"TV & Systems","Default Category/Electronics & Computers",,"Yes",,,,,,,"Yes","Products only",,"Yes",,,"2 columns with left bar",
"Home Audio & Theaters","Default Category/Electronics & Computers",,"Yes",,,,,,,"Yes","Products only",,"Yes",,,"2 columns with left bar",
"Camera, Photo & Video","Default Category/Electronics & Computers",,"Yes",,,,,,,"Yes","Products only",,"Yes",,,"2 columns with left bar",
"Cell Phones & Accessories","Default Category/Electronics & Computers",,"Yes",,,,,,,"Yes","Products only",,"Yes",,,"2 columns with left bar",
"Home Telephones","Default Category/Electronics & Computers",,"Yes",,,,,,,"Yes","Products only",,"Yes",,,"2 columns with left bar",
"Mp3 Players & Accessories","Default Category/Electronics & Computers",,"Yes",,,,,,,"Yes","Products only",,"Yes",,,"2 columns with left bar",
"Car Electronics & GPS","Default Category/Electronics & Computers",,"Yes",,,,,,,"Yes","Products only",,"Yes",,,"2 columns with left bar",
"Electronic Accessories","Default Category/Electronics & Computers",,"Yes",,,,,,,"Yes","Products only",,"Yes",,,"2 columns with left bar",
"Laptops, Ultrabooks & Tablets","Default Category/Electronics & Computers",,"Yes",,,,,,,"Yes","Products only",,"Yes",,,"2 columns with left bar",
"Desktop & Monitors","Default Category/Electronics & Computers",,"Yes",,,,,,,"Yes","Products only",,"Yes",,,"2 columns with left bar",
"Computer Parts & Components","Default Category/Electronics & Computers",,"Yes",,,,,,,"Yes","Products only",,"Yes",,,"2 columns with left bar",
"Computer Accessories & Peripherals","Default Category/Electronics & Computers",,"Yes",,,,,,,"Yes","Products only",,"Yes",,,"2 columns with left bar",
"Software","Default Category/Electronics & Computers",,"Yes",,,,,,,"Yes","Products only",,"Yes",,,"2 columns with left bar",
"Printers & Ink","Default Category/Electronics & Computers",,"Yes",,,,,,,"Yes","Products only",,"Yes",,,"2 columns with left bar",
"Office & School electronics","Default Category/Electronics & Computers",,"Yes",,,,,,,"Yes","Products only",,"Yes",,,"2 columns with left bar",
"Kitchen & Dining","Default Category/Home,Garden & Tools",,"Yes",,,,,,,"Yes","Products only",,"Yes",,,"2 columns with left bar",
"Furniture & Decor","Default Category/Home,Garden & Tools",,"Yes",,,,,,,"Yes","Products only",,"Yes",,,"2 columns with left bar",
"Appliances","Default Category/Home,Garden & Tools",,"Yes",,,,,,,"Yes","Products only",,"Yes",,,"2 columns with left bar",
"Pet Supplies","Default Category/Home,Garden & Tools",,"Yes",,,,,,,"Yes","Products only",,"Yes",,,"2 columns with left bar",
"Patio, Lawn & Garden","Default Category/Home,Garden & Tools",,"Yes",,,,,,,"Yes","Products only",,"Yes",,,"2 columns with left bar",
"Fine Art","Default Category/Home,Garden & Tools",,"Yes",,,,,,,"Yes","Products only",,"Yes",,,"2 columns with left bar",
"Arts, Crafts & Sewing","Default Category/Home,Garden & Tools",,"Yes",,,,,,,"Yes","Products only",,"Yes",,,"2 columns with left bar",
"Home Improvement","Default Category/Home,Garden & Tools",,"Yes",,,,,,,"Yes","Products only",,"Yes",,,"2 columns with left bar",
"Power & Hand Tools","Default Category/Home,Garden & Tools",,"Yes",,,,,,,"Yes","Products only",,"Yes",,,"2 columns with left bar",
"Lamp & light Fixtures","Default Category/Home,Garden & Tools",,"Yes",,,,,,,"Yes","Products only",,"Yes",,,"2 columns with left bar",
"Kitchen & Bath Fixtures","Default Category/Home,Garden & Tools",,"Yes",,,,,,,"Yes","Products only",,"Yes",,,"2 columns with left bar",
"Hard Ware","Default Category/Home,Garden & Tools",,"Yes",,,,,,,"Yes","Products only",,"Yes",,,"2 columns with left bar",
"Building Supplies","Default Category/Home,Garden & Tools",,"Yes",,,,,,,"Yes","Products only",,"Yes",,,"2 columns with left bar",
"Office & School Supplies","Default Category/Home,Garden & Tools",,"Yes",,,,,,,"Yes","Products only",,"Yes",,,"2 columns with left bar",
"Grocery","Default Category/Grocery, Health & Beauty",,"Yes",,,,,,,"Yes","Products only",,"Yes",,,"2 columns with left bar",
"Natural Organic","Default Category/Grocery, Health & Beauty",,"Yes",,,,,,,"Yes","Products only",,"Yes",,,"2 columns with left bar",
"Health & Personal Care","Default Category/Grocery, Health & Beauty",,"Yes",,,,,,,"Yes","Products only",,"Yes",,,"2 columns with left bar",
"Beauty","Default Category/Grocery, Health & Beauty",,"Yes",,,,,,,"Yes","Products only",,"Yes",,,"2 columns with left bar",
"Toys & Games","Default Category/Toys, Kids & Baby",,"Yes",,,,,,,"Yes","Products only",,"Yes",,,"2 columns with left bar",
"Baby","Default Category/Toys, Kids & Baby",,"Yes",,,,,,,"Yes","Products only",,"Yes",,,"2 columns with left bar",
"Kids Clothing","Default Category/Toys, Kids & Baby",,"Yes",,,,,,,"Yes","Products only",,"Yes",,,"2 columns with left bar",
"Baby Clothing","Default Category/Toys, Kids & Baby",,"Yes",,,,,,,"Yes","Products only",,"Yes",,,"2 columns with left bar",
"Women","Default Category/Clothing, Shoes & Jewelry",,"Yes",,,,,,,"Yes","Products only",,"Yes",,,"2 columns with left bar",
"Men","Default Category/Clothing, Shoes & Jewelry",,"Yes",,,,,,,"Yes","Products only",,"Yes",,,"2 columns with left bar",
"Luggage","Default Category/Clothing, Shoes & Jewelry",,"Yes",,,,,,,"Yes","Products only",,"Yes",,,"2 columns with left bar",
"Exercise & Fitness","Default Category/Sport & Outdoors",,"Yes",,,,,,,"Yes","Products only",,"Yes",,,"2 columns with left bar",
"Outdoor Recreation","Default Category/Sport & Outdoors",,"Yes",,,,,,,"Yes","Products only",,"Yes",,,"2 columns with left bar",
"Cycling","Default Category/Sport & Outdoors",,"Yes",,,,,,,"Yes","Products only",,"Yes",,,"2 columns with left bar",
"Athletic & Outdoor Clothing","Default Category/Sport & Outdoors",,"Yes",,,,,,,"Yes","Products only",,"Yes",,,"2 columns with left bar",
"Sports Shoes","Default Category/Sport & Outdoors",,"Yes",,,,,,,"Yes","Products only",,"Yes",,,"2 columns with left bar",
"Sports Collectibles","Default Category/Sport & Outdoors",,"Yes",,,,,,,"Yes","Products only",,"Yes",,,"2 columns with left bar",
"Automotive Parts & Accessories","Default Category/Automotive & Industrial",,"Yes",,,,,,,"Yes","Products only",,"Yes",,,"2 columns with left bar",
"Car Electronics & GPS","Default Category/Automotive & Industrial",,"Yes",,,,,,,"Yes","Products only",,"Yes",,,"2 columns with left bar",
"Tires & Wheels","Default Category/Automotive & Industrial",,"Yes",,,,,,,"Yes","Products only",,"Yes",,,"2 columns with left bar",
"Motorcycle Parts and Accessories","Default Category/Automotive & Industrial",,"Yes",,,,,,,"Yes","Products only",,"Yes",,,"2 columns with left bar",
"Industrial Supplies","Default Category/Automotive & Industrial",,"Yes",,,,,,,"Yes","Products only",,"Yes",,,"2 columns with left bar",
"Safety","Default Category/Automotive & Industrial",,"Yes",,,,,,,"Yes","Products only",,"Yes",,,"2 columns with left bar",
