"Name","Path","Position","Is Active","Url Key","Description","Image","Page Title","Meta Keywords","Meta Description","Include In Menu","Display Mode","CMS Block","Is Anchor","Availabe Sort By","Default Sort By","Page Layout","Custom Layout Update"
"Consoles","Default Category/Video Games & Gaming Systems/Xbox",,"Yes",,,,,,,"Yes","Products only",,"Yes",,,"2 columns with left bar",
"Games","Default Category/Video Games & Gaming Systems/Xbox",,"Yes",,,,,,,"Yes","Products only",,"Yes",,,"2 columns with left bar",
"Accessories","Default Category/Video Games & Gaming Systems/Xbox",,"Yes",,,,,,,"Yes","Products only",,"Yes",,,"2 columns with left bar",
"Consoles","Default Category/Video Games & Gaming Systems/Playstation",,"Yes",,,,,,,"Yes","Products only",,"Yes",,,"2 columns with left bar",
"Games","Default Category/Video Games & Gaming Systems/Playstation",,"Yes",,,,,,,"Yes","Products only",,"Yes",,,"2 columns with left bar",
"Accessories","Default Category/Video Games & Gaming Systems/Playstation",,"Yes",,,,,,,"Yes","Products only",,"Yes",,,"2 columns with left bar",
"Consoles","Default Category/Video Games & Gaming Systems/Wii",,"Yes",,,,,,,"Yes","Products only",,"Yes",,,"2 columns with left bar",
"Games","Default Category/Video Games & Gaming Systems/Wii",,"Yes",,,,,,,"Yes","Products only",,"Yes",,,"2 columns with left bar",
"Accessories","Default Category/Video Games & Gaming Systems/Wii",,"Yes",,,,,,,"Yes","Products only",,"Yes",,,"2 columns with left bar",
"Consoles","Default Category/Video Games & Gaming Systems/Handheld",,"Yes",,,,,,,"Yes","Products only",,"Yes",,,"2 columns with left bar",
"Games","Default Category/Video Games & Gaming Systems/Handheld",,"Yes",,,,,,,"Yes","Products only",,"Yes",,,"2 columns with left bar",
"Accessories","Default Category/Video Games & Gaming Systems/Handheld",,"Yes",,,,,,,"Yes","Products only",,"Yes",,,"2 columns with left bar",
"Consoles","Default Category/Video Games & Gaming Systems/PC & Mac",,"Yes",,,,,,,"Yes","Products only",,"Yes",,,"2 columns with left bar",
"Games","Default Category/Video Games & Gaming Systems/PC & Mac",,"Yes",,,,,,,"Yes","Products only",,"Yes",,,"2 columns with left bar",
"Accessories","Default Category/Video Games & Gaming Systems/PC & Mac",,"Yes",,,,,,,"Yes","Products only",,"Yes",,,"2 columns with left bar",
"Business & Management","Default Category/Books & Audible/Book",,"Yes",,,,,,,"Yes","Products only",,"Yes",,,"2 columns with left bar",
"IT & Computers","Default Category/Books & Audible/Book",,"Yes",,,,,,,"Yes","Products only",,"Yes",,,"2 columns with left bar",
"Languages & Literature","Default Category/Books & Audible/Book",,"Yes",,,,,,,"Yes","Products only",,"Yes",,,"2 columns with left bar",
"Medicine","Default Category/Books & Audible/Book",,"Yes",,,,,,,"Yes","Products only",,"Yes",,,"2 columns with left bar",
"Science & Engineering","Default Category/Books & Audible/Book",,"Yes",,,,,,,"Yes","Products only",,"Yes",,,"2 columns with left bar",
"Adventure","Default Category/Books & Audible/Novels & Stores",,"Yes",,,,,,,"Yes","Products only",,"Yes",,,"2 columns with left bar",
"Comic","Default Category/Books & Audible/Novels & Stores",,"Yes",,,,,,,"Yes","Products only",,"Yes",,,"2 columns with left bar",
"Crime","Default Category/Books & Audible/Novels & Stores",,"Yes",,,,,,,"Yes","Products only",,"Yes",,,"2 columns with left bar",
"Horror","Default Category/Books & Audible/Novels & Stores",,"Yes",,,,,,,"Yes","Products only",,"Yes",,,"2 columns with left bar",
"Romance","Default Category/Books & Audible/Novels & Stores",,"Yes",,,,,,,"Yes","Products only",,"Yes",,,"2 columns with left bar",
"Science fiction","Default Category/Books & Audible/Novels & Stores",,"Yes",,,,,,,"Yes","Products only",,"Yes",,,"2 columns with left bar",
"Thriller","Default Category/Books & Audible/Novels & Stores",,"Yes",,,,,,,"Yes","Products only",,"Yes",,,"2 columns with left bar",
"Journal","Default Category/Books & Audible/Novels & Stores",,"Yes",,,,,,,"Yes","Products only",,"Yes",,,"2 columns with left bar",
"Travel Magazines","Default Category/Books & Audible/Magazines",,"Yes",,,,,,,"Yes","Products only",,"Yes",,,"2 columns with left bar",
"Architecture Magazines","Default Category/Books & Audible/Magazines",,"Yes",,,,,,,"Yes","Products only",,"Yes",,,"2 columns with left bar",
"Science Fiction Magazines","Default Category/Books & Audible/Magazines",,"Yes",,,,,,,"Yes","Products only",,"Yes",,,"2 columns with left bar",
"Sports Magazines","Default Category/Books & Audible/Magazines",,"Yes",,,,,,,"Yes","Products only",,"Yes",,,"2 columns with left bar",
"Automobile Magazines","Default Category/Books & Audible/Magazines",,"Yes",,,,,,,"Yes","Products only",,"Yes",,,"2 columns with left bar",
"Business Magazines","Default Category/Books & Audible/Magazines",,"Yes",,,,,,,"Yes","Products only",,"Yes",,,"2 columns with left bar",
"Computer Magazines","Default Category/Books & Audible/Magazines",,"Yes",,,,,,,"Yes","Products only",,"Yes",,,"2 columns with left bar",
"Fitness and Health Magazines","Default Category/Books & Audible/Magazines",,"Yes",,,,,,,"Yes","Products only",,"Yes",,,"2 columns with left bar",
"TV","Default Category/Electronics & Computers/TV & Systems",,"Yes",,,,,,,"Yes","Products only",,"Yes",,,"2 columns with left bar",
"Video","Default Category/Electronics & Computers/TV & Systems",,"Yes",,,,,,,"Yes","Products only",,"Yes",,,"2 columns with left bar",
"Recievers","Default Category/Electronics & Computers/TV & Systems",,"Yes",,,,,,,"Yes","Products only",,"Yes",,,"2 columns with left bar",
"Digital Media Player","Default Category/Electronics & Computers/TV & Systems",,"Yes",,,,,,,"Yes","Products only",,"Yes",,,"2 columns with left bar",
"TV & Systems Accessories","Default Category/Electronics & Computers/TV & Systems",,"Yes",,,,,,,"Yes","Products only",,"Yes",,,"2 columns with left bar",
"Speakers","Default Category/Electronics & Computers/Home Audio & Theaters",,"Yes",,,,,,,"Yes","Products only",,"Yes",,,"2 columns with left bar",
"Sarround Sound Systems","Default Category/Electronics & Computers/Home Audio & Theaters",,"Yes",,,,,,,"Yes","Products only",,"Yes",,,"2 columns with left bar",
"Home & Audio Accessories","Default Category/Electronics & Computers/Home Audio & Theaters",,"Yes",,,,,,,"Yes","Products only",,"Yes",,,"2 columns with left bar",
"Digital Cameras","Default Category/Electronics & Computers/Camera, Photo & Video",,"Yes",,,,,,,"Yes","Products only",,"Yes",,,"2 columns with left bar",
"Digital SLR Cameras","Default Category/Electronics & Computers/Camera, Photo & Video",,"Yes",,,,,,,"Yes","Products only",,"Yes",,,"2 columns with left bar",
"Lences","Default Category/Electronics & Computers/Camera, Photo & Video",,"Yes",,,,,,,"Yes","Products only",,"Yes",,,"2 columns with left bar",
"Camcords","Default Category/Electronics & Computers/Camera, Photo & Video",,"Yes",,,,,,,"Yes","Products only",,"Yes",,,"2 columns with left bar",
"Casese & Bags","Default Category/Electronics & Computers/Camera, Photo & Video",,"Yes",,,,,,,"Yes","Products only",,"Yes",,,"2 columns with left bar",
"Accessories","Default Category/Electronics & Computers/Camera, Photo & Video",,"Yes",,,,,,,"Yes","Products only",,"Yes",,,"2 columns with left bar",
"Survaillance","Default Category/Electronics & Computers/Camera, Photo & Video",,"Yes",,,,,,,"Yes","Products only",,"Yes",,,"2 columns with left bar",
"Mobiles","Default Category/Electronics & Computers/Cell Phones & Accessories",,"Yes",,,,,,,"Yes","Products only",,"Yes",,,"2 columns with left bar",
"Accessories","Default Category/Electronics & Computers/Cell Phones & Accessories",,"Yes",,,,,,,"Yes","Products only",,"Yes",,,"2 columns with left bar",
"Corded Telephones","Default Category/Electronics & Computers/Home Telephones",,"Yes",,,,,,,"Yes","Products only",,"Yes",,,"2 columns with left bar",
"Cordless Telephones","Default Category/Electronics & Computers/Home Telephones",,"Yes",,,,,,,"Yes","Products only",,"Yes",,,"2 columns with left bar",
"iPods","Default Category/Electronics & Computers/Mp3 Players & Accessories",,"Yes",,,,,,,"Yes","Products only",,"Yes",,,"2 columns with left bar",
"MP3 Players","Default Category/Electronics & Computers/Mp3 Players & Accessories",,"Yes",,,,,,,"Yes","Products only",,"Yes",,,"2 columns with left bar",
"Speaker Systems","Default Category/Electronics & Computers/Mp3 Players & Accessories",,"Yes",,,,,,,"Yes","Products only",,"Yes",,,"2 columns with left bar",
"Accessories","Default Category/Electronics & Computers/Mp3 Players & Accessories",,"Yes",,,,,,,"Yes","Products only",,"Yes",,,"2 columns with left bar",
"Car Audio","Default Category/Electronics & Computers/Car Electronics & GPS",,"Yes",,,,,,,"Yes","Products only",,"Yes",,,"2 columns with left bar",
"Car Video","Default Category/Electronics & Computers/Car Electronics & GPS",,"Yes",,,,,,,"Yes","Products only",,"Yes",,,"2 columns with left bar",
"Security","Default Category/Electronics & Computers/Car Electronics & GPS",,"Yes",,,,,,,"Yes","Products only",,"Yes",,,"2 columns with left bar",
"GPS","Default Category/Electronics & Computers/Car Electronics & GPS",,"Yes",,,,,,,"Yes","Products only",,"Yes",,,"2 columns with left bar",
"Cell Phones Accessories","Default Category/Electronics & Computers/Electronic Accessories",,"Yes",,,,,,,"Yes","Products only",,"Yes",,,"2 columns with left bar",
"Cameras Accessories","Default Category/Electronics & Computers/Electronic Accessories",,"Yes",,,,,,,"Yes","Products only",,"Yes",,,"2 columns with left bar",
"Tablets Accessories","Default Category/Electronics & Computers/Electronic Accessories",,"Yes",,,,,,,"Yes","Products only",,"Yes",,,"2 columns with left bar",
"Mp3 Players Accessories","Default Category/Electronics & Computers/Electronic Accessories",,"Yes",,,,,,,"Yes","Products only",,"Yes",,,"2 columns with left bar",
"Car Electronics Accessories","Default Category/Electronics & Computers/Electronic Accessories",,"Yes",,,,,,,"Yes","Products only",,"Yes",,,"2 columns with left bar",
"Computer Accessories","Default Category/Electronics & Computers/Electronic Accessories",,"Yes",,,,,,,"Yes","Products only",,"Yes",,,"2 columns with left bar",
"Audio & video Accessories","Default Category/Electronics & Computers/Electronic Accessories",,"Yes",,,,,,,"Yes","Products only",,"Yes",,,"2 columns with left bar",
"Laptops","Default Category/Electronics & Computers/Laptops, Ultrabooks & Tablets",,"Yes",,,,,,,"Yes","Products only",,"Yes",,,"2 columns with left bar",
"Tablets","Default Category/Electronics & Computers/Laptops, Ultrabooks & Tablets",,"Yes",,,,,,,"Yes","Products only",,"Yes",,,"2 columns with left bar",
"Ultrabooks","Default Category/Electronics & Computers/Laptops, Ultrabooks & Tablets",,"Yes",,,,,,,"Yes","Products only",,"Yes",,,"2 columns with left bar",
"Tablets Accessories","Default Category/Electronics & Computers/Laptops, Ultrabooks & Tablets",,"Yes",,,,,,,"Yes","Products only",,"Yes",,,"2 columns with left bar",
"Laptops Accessories","Default Category/Electronics & Computers/Laptops, Ultrabooks & Tablets",,"Yes",,,,,,,"Yes","Products only",,"Yes",,,"2 columns with left bar",
"Desktops","Default Category/Electronics & Computers/Desktop & Monitors",,"Yes",,,,,,,"Yes","Products only",,"Yes",,,"2 columns with left bar",
"Monitors","Default Category/Electronics & Computers/Desktop & Monitors",,"Yes",,,,,,,"Yes","Products only",,"Yes",,,"2 columns with left bar",
"Hard Drives","Default Category/Electronics & Computers/Computer Parts & Components",,"Yes",,,,,,,"Yes","Products only",,"Yes",,,"2 columns with left bar",
"CPUs","Default Category/Electronics & Computers/Computer Parts & Components",,"Yes",,,,,,,"Yes","Products only",,"Yes",,,"2 columns with left bar",
"Motherboards","Default Category/Electronics & Computers/Computer Parts & Components",,"Yes",,,,,,,"Yes","Products only",,"Yes",,,"2 columns with left bar",
"Graphics Cards","Default Category/Electronics & Computers/Computer Parts & Components",,"Yes",,,,,,,"Yes","Products only",,"Yes",,,"2 columns with left bar",
"Memory","Default Category/Electronics & Computers/Computer Parts & Components",,"Yes",,,,,,,"Yes","Products only",,"Yes",,,"2 columns with left bar",
"Cases","Default Category/Electronics & Computers/Computer Parts & Components",,"Yes",,,,,,,"Yes","Products only",,"Yes",,,"2 columns with left bar",
"Power Supplies","Default Category/Electronics & Computers/Computer Parts & Components",,"Yes",,,,,,,"Yes","Products only",,"Yes",,,"2 columns with left bar",
"Sound &Video Cards","Default Category/Electronics & Computers/Computer Parts & Components",,"Yes",,,,,,,"Yes","Products only",,"Yes",,,"2 columns with left bar",
"Fans & Cooling","Default Category/Electronics & Computers/Computer Parts & Components",,"Yes",,,,,,,"Yes","Products only",,"Yes",,,"2 columns with left bar",
"External Hard Drives","Default Category/Electronics & Computers/Computer Accessories & Peripherals",,"Yes",,,,,,,"Yes","Products only",,"Yes",,,"2 columns with left bar",
"Routers","Default Category/Electronics & Computers/Computer Accessories & Peripherals",,"Yes",,,,,,,"Yes","Products only",,"Yes",,,"2 columns with left bar",
"Flash Memory","Default Category/Electronics & Computers/Computer Accessories & Peripherals",,"Yes",,,,,,,"Yes","Products only",,"Yes",,,"2 columns with left bar",
"Keyboards","Default Category/Electronics & Computers/Computer Accessories & Peripherals",,"Yes",,,,,,,"Yes","Products only",,"Yes",,,"2 columns with left bar",
"Mouses","Default Category/Electronics & Computers/Computer Accessories & Peripherals",,"Yes",,,,,,,"Yes","Products only",,"Yes",,,"2 columns with left bar",
"Cables","Default Category/Electronics & Computers/Computer Accessories & Peripherals",,"Yes",,,,,,,"Yes","Products only",,"Yes",,,"2 columns with left bar",
"Computer Speakers","Default Category/Electronics & Computers/Computer Accessories & Peripherals",,"Yes",,,,,,,"Yes","Products only",,"Yes",,,"2 columns with left bar",
"PC Headsets","Default Category/Electronics & Computers/Computer Accessories & Peripherals",,"Yes",,,,,,,"Yes","Products only",,"Yes",,,"2 columns with left bar",
"Monitors","Default Category/Electronics & Computers/Computer Accessories & Peripherals",,"Yes",,,,,,,"Yes","Products only",,"Yes",,,"2 columns with left bar",
"USB Drives","Default Category/Electronics & Computers/Computer Accessories & Peripherals",,"Yes",,,,,,,"Yes","Products only",,"Yes",,,"2 columns with left bar",
"Webcam","Default Category/Electronics & Computers/Computer Accessories & Peripherals",,"Yes",,,,,,,"Yes","Products only",,"Yes",,,"2 columns with left bar",
"Accounting & Finance","Default Category/Electronics & Computers/Software",,"Yes",,,,,,,"Yes","Products only",,"Yes",,,"2 columns with left bar",
"Business & Office","Default Category/Electronics & Computers/Software",,"Yes",,,,,,,"Yes","Products only",,"Yes",,,"2 columns with left bar",
"Children's","Default Category/Electronics & Computers/Software",,"Yes",,,,,,,"Yes","Products only",,"Yes",,,"2 columns with left bar",
"Computer Security","Default Category/Electronics & Computers/Software",,"Yes",,,,,,,"Yes","Products only",,"Yes",,,"2 columns with left bar",
"Education & Reference","Default Category/Electronics & Computers/Software",,"Yes",,,,,,,"Yes","Products only",,"Yes",,,"2 columns with left bar",
"Games","Default Category/Electronics & Computers/Software",,"Yes",,,,,,,"Yes","Products only",,"Yes",,,"2 columns with left bar",
"Language & Travel","Default Category/Electronics & Computers/Software",,"Yes",,,,,,,"Yes","Products only",,"Yes",,,"2 columns with left bar",
"Photo Editing","Default Category/Electronics & Computers/Software",,"Yes",,,,,,,"Yes","Products only",,"Yes",,,"2 columns with left bar",
"Operating Systems","Default Category/Electronics & Computers/Software",,"Yes",,,,,,,"Yes","Products only",,"Yes",,,"2 columns with left bar",
"Programming & Web Development","Default Category/Electronics & Computers/Software",,"Yes",,,,,,,"Yes","Products only",,"Yes",,,"2 columns with left bar",
"Printers","Default Category/Electronics & Computers/Printers & Ink",,"Yes",,,,,,,"Yes","Products only",,"Yes",,,"2 columns with left bar",
"Ink","Default Category/Electronics & Computers/Printers & Ink",,"Yes",,,,,,,"Yes","Products only",,"Yes",,,"2 columns with left bar",
"Presentation","Default Category/Electronics & Computers/Office & School electronics",,"Yes",,,,,,,"Yes","Products only",,"Yes",,,"2 columns with left bar",
"Business Projectors","Default Category/Electronics & Computers/Office & School electronics",,"Yes",,,,,,,"Yes","Products only",,"Yes",,,"2 columns with left bar",
"Projector Screens","Default Category/Electronics & Computers/Office & School electronics",,"Yes",,,,,,,"Yes","Products only",,"Yes",,,"2 columns with left bar",
"Printers","Default Category/Electronics & Computers/Office & School electronics",,"Yes",,,,,,,"Yes","Products only",,"Yes",,,"2 columns with left bar",
"Scanners","Default Category/Electronics & Computers/Office & School electronics",,"Yes",,,,,,,"Yes","Products only",,"Yes",,,"2 columns with left bar",
"Fax","Default Category/Electronics & Computers/Office & School electronics",,"Yes",,,,,,,"Yes","Products only",,"Yes",,,"2 columns with left bar",
"Small Appliances","Default Category/Home,Garden & Tools/Kitchen & Dining",,"Yes",,,,,,,"Yes","Products only",,"Yes",,,"2 columns with left bar",
"Tool & Gadgets","Default Category/Home,Garden & Tools/Kitchen & Dining",,"Yes",,,,,,,"Yes","Products only",,"Yes",,,"2 columns with left bar",
"Tabletop","Default Category/Home,Garden & Tools/Kitchen & Dining",,"Yes",,,,,,,"Yes","Products only",,"Yes",,,"2 columns with left bar",
"Cutlery","Default Category/Home,Garden & Tools/Kitchen & Dining",,"Yes",,,,,,,"Yes","Products only",,"Yes",,,"2 columns with left bar",
"Cookware","Default Category/Home,Garden & Tools/Kitchen & Dining",,"Yes",,,,,,,"Yes","Products only",,"Yes",,,"2 columns with left bar",
"Bakeware","Default Category/Home,Garden & Tools/Kitchen & Dining",,"Yes",,,,,,,"Yes","Products only",,"Yes",,,"2 columns with left bar",
"Other","Default Category/Home,Garden & Tools/Kitchen & Dining",,"Yes",,,,,,,"Yes","Products only",,"Yes",,,"2 columns with left bar",
"Bedroom Furniture","Default Category/Home,Garden & Tools/Furniture & Decor",,"Yes",,,,,,,"Yes","Products only",,"Yes",,,"2 columns with left bar",
"Interior Decoration","Default Category/Home,Garden & Tools/Furniture & Decor",,"Yes",,,,,,,"Yes","Products only",,"Yes",,,"2 columns with left bar",
"Living Room Furniture","Default Category/Home,Garden & Tools/Furniture & Decor",,"Yes",,,,,,,"Yes","Products only",,"Yes",,,"2 columns with left bar",
"Kids Furniture","Default Category/Home,Garden & Tools/Furniture & Decor",,"Yes",,,,,,,"Yes","Products only",,"Yes",,,"2 columns with left bar",
"Bath","Default Category/Home,Garden & Tools/Furniture & Decor",,"Yes",,,,,,,"Yes","Products only",,"Yes",,,"2 columns with left bar",
"Rugs & Carpets","Default Category/Home,Garden & Tools/Furniture & Decor",,"Yes",,,,,,,"Yes","Products only",,"Yes",,,"2 columns with left bar",
"Lamps","Default Category/Home,Garden & Tools/Furniture & Decor",,"Yes",,,,,,,"Yes","Products only",,"Yes",,,"2 columns with left bar",
"Chairs","Default Category/Home,Garden & Tools/Furniture & Decor",,"Yes",,,,,,,"Yes","Products only",,"Yes",,,"2 columns with left bar",
"Air Conditioners","Default Category/Home,Garden & Tools/Appliances",,"Yes",,,,,,,"Yes","Products only",,"Yes",,,"2 columns with left bar",
"Beverage Refrigerators","Default Category/Home,Garden & Tools/Appliances",,"Yes",,,,,,,"Yes","Products only",,"Yes",,,"2 columns with left bar",
"Dishwashers","Default Category/Home,Garden & Tools/Appliances",,"Yes",,,,,,,"Yes","Products only",,"Yes",,,"2 columns with left bar",
"Freezers","Default Category/Home,Garden & Tools/Appliances",,"Yes",,,,,,,"Yes","Products only",,"Yes",,,"2 columns with left bar",
"Vacuums & Floor Care","Default Category/Home,Garden & Tools/Appliances",,"Yes",,,,,,,"Yes","Products only",,"Yes",,,"2 columns with left bar",
"Irons, Steamers","Default Category/Home,Garden & Tools/Appliances",,"Yes",,,,,,,"Yes","Products only",,"Yes",,,"2 columns with left bar",
"Fans","Default Category/Home,Garden & Tools/Appliances",,"Yes",,,,,,,"Yes","Products only",,"Yes",,,"2 columns with left bar",
"Heaters","Default Category/Home,Garden & Tools/Appliances",,"Yes",,,,,,,"Yes","Products only",,"Yes",,,"2 columns with left bar",
"Steam Cleaners","Default Category/Home,Garden & Tools/Appliances",,"Yes",,,,,,,"Yes","Products only",,"Yes",,,"2 columns with left bar",
"Cooking Appliances","Default Category/Home,Garden & Tools/Appliances",,"Yes",,,,,,,"Yes","Products only",,"Yes",,,"2 columns with left bar",
"Bird Supplies","Default Category/Home,Garden & Tools/Pet Supplies",,"Yes",,,,,,,"Yes","Products only",,"Yes",,,"2 columns with left bar",
"Dog Supplies","Default Category/Home,Garden & Tools/Pet Supplies",,"Yes",,,,,,,"Yes","Products only",,"Yes",,,"2 columns with left bar",
"Cat Supplies","Default Category/Home,Garden & Tools/Pet Supplies",,"Yes",,,,,,,"Yes","Products only",,"Yes",,,"2 columns with left bar",
"Fish Supplies","Default Category/Home,Garden & Tools/Pet Supplies",,"Yes",,,,,,,"Yes","Products only",,"Yes",,,"2 columns with left bar",
"Small Animal Supplies","Default Category/Home,Garden & Tools/Pet Supplies",,"Yes",,,,,,,"Yes","Products only",,"Yes",,,"2 columns with left bar",
"Grills & Outdoor Cooking","Default Category/Home,Garden & Tools/Patio, Lawn & Garden",,"Yes",,,,,,,"Yes","Products only",,"Yes",,,"2 columns with left bar",
"Pools, Spas & Supplies","Default Category/Home,Garden & Tools/Patio, Lawn & Garden",,"Yes",,,,,,,"Yes","Products only",,"Yes",,,"2 columns with left bar",
"Watering Equipment","Default Category/Home,Garden & Tools/Patio, Lawn & Garden",,"Yes",,,,,,,"Yes","Products only",,"Yes",,,"2 columns with left bar",
"Patio Furniture","Default Category/Home,Garden & Tools/Patio, Lawn & Garden",,"Yes",,,,,,,"Yes","Products only",,"Yes",,,"2 columns with left bar",
"pop art","Default Category/Home,Garden & Tools/Fine Art",,"Yes",,,,,,,"Yes","Products only",,"Yes",,,"2 columns with left bar",
"Paintings","Default Category/Home,Garden & Tools/Fine Art",,"Yes",,,,,,,"Yes","Products only",,"Yes",,,"2 columns with left bar",
"Photographs","Default Category/Home,Garden & Tools/Fine Art",,"Yes",,,,,,,"Yes","Products only",,"Yes",,,"2 columns with left bar",
"Posters","Default Category/Home,Garden & Tools/Fine Art",,"Yes",,,,,,,"Yes","Products only",,"Yes",,,"2 columns with left bar",
"Sewing","Default Category/Home,Garden & Tools/Arts, Crafts & Sewing",,"Yes",,,,,,,"Yes","Products only",,"Yes",,,"2 columns with left bar",
"Drawing & Painting","Default Category/Home,Garden & Tools/Arts, Crafts & Sewing",,"Yes",,,,,,,"Yes","Products only",,"Yes",,,"2 columns with left bar",
"others","Default Category/Home,Garden & Tools/Arts, Crafts & Sewing",,"Yes",,,,,,,"Yes","Products only",,"Yes",,,"2 columns with left bar",
"Light Bulbs","Default Category/Home,Garden & Tools/Lamp & light Fixtures",,"Yes",,,,,,,"Yes","Products only",,"Yes",,,"2 columns with left bar",
"Ceiling Fans","Default Category/Home,Garden & Tools/Lamp & light Fixtures",,"Yes",,,,,,,"Yes","Products only",,"Yes",,,"2 columns with left bar",
"Bath Lights","Default Category/Home,Garden & Tools/Lamp & light Fixtures",,"Yes",,,,,,,"Yes","Products only",,"Yes",,,"2 columns with left bar",
"Lamps & Shades","Default Category/Home,Garden & Tools/Lamp & light Fixtures",,"Yes",,,,,,,"Yes","Products only",,"Yes",,,"2 columns with left bar",
"Faucet","Default Category/Home,Garden & Tools/Kitchen & Bath Fixtures",,"Yes",,,,,,,"Yes","Products only",,"Yes",,,"2 columns with left bar",
"Sink","Default Category/Home,Garden & Tools/Kitchen & Bath Fixtures",,"Yes",,,,,,,"Yes","Products only",,"Yes",,,"2 columns with left bar",
"Bathtubs","Default Category/Home,Garden & Tools/Kitchen & Bath Fixtures",,"Yes",,,,,,,"Yes","Products only",,"Yes",,,"2 columns with left bar",
"Plumbing Supply","Default Category/Home,Garden & Tools/Kitchen & Bath Fixtures",,"Yes",,,,,,,"Yes","Products only",,"Yes",,,"2 columns with left bar",
"Furniture","Default Category/Home,Garden & Tools/Office & School Supplies",,"Yes",,,,,,,"Yes","Products only",,"Yes",,,"2 columns with left bar",
"Organization","Default Category/Home,Garden & Tools/Office & School Supplies",,"Yes",,,,,,,"Yes","Products only",,"Yes",,,"2 columns with left bar",
"Office Basics","Default Category/Home,Garden & Tools/Office & School Supplies",,"Yes",,,,,,,"Yes","Products only",,"Yes",,,"2 columns with left bar",
"Coffee","Default Category/Grocery, Health & Beauty/Grocery",,"Yes",,,,,,,"Yes","Products only",,"Yes",,,"2 columns with left bar",
"Tea","Default Category/Grocery, Health & Beauty/Grocery",,"Yes",,,,,,,"Yes","Products only",,"Yes",,,"2 columns with left bar",
"Beverages","Default Category/Grocery, Health & Beauty/Grocery",,"Yes",,,,,,,"Yes","Products only",,"Yes",,,"2 columns with left bar",
"Pantry","Default Category/Grocery, Health & Beauty/Grocery",,"Yes",,,,,,,"Yes","Products only",,"Yes",,,"2 columns with left bar",
"Snack Food","Default Category/Grocery, Health & Beauty/Grocery",,"Yes",,,,,,,"Yes","Products only",,"Yes",,,"2 columns with left bar",
"Baking Goods & Cooking Supplies","Default Category/Grocery, Health & Beauty/Grocery",,"Yes",,,,,,,"Yes","Products only",,"Yes",,,"2 columns with left bar",
"Sweets & Chocolates","Default Category/Grocery, Health & Beauty/Grocery",,"Yes",,,,,,,"Yes","Products only",,"Yes",,,"2 columns with left bar",
"Gourmet Gifts","Default Category/Grocery, Health & Beauty/Grocery",,"Yes",,,,,,,"Yes","Products only",,"Yes",,,"2 columns with left bar",
"Flowers & Indoor Plants","Default Category/Grocery, Health & Beauty/Grocery",,"Yes",,,,,,,"Yes","Products only",,"Yes",,,"2 columns with left bar",
"Makeup","Default Category/Grocery, Health & Beauty/Beauty",,"Yes",,,,,,,"Yes","Products only",,"Yes",,,"2 columns with left bar",
"Skin Care","Default Category/Grocery, Health & Beauty/Beauty",,"Yes",,,,,,,"Yes","Products only",,"Yes",,,"2 columns with left bar",
"Hair Care","Default Category/Grocery, Health & Beauty/Beauty",,"Yes",,,,,,,"Yes","Products only",,"Yes",,,"2 columns with left bar",
"Perfume & Cologne","Default Category/Grocery, Health & Beauty/Beauty",,"Yes",,,,,,,"Yes","Products only",,"Yes",,,"2 columns with left bar",
"Tools & Accessories","Default Category/Grocery, Health & Beauty/Beauty",,"Yes",,,,,,,"Yes","Products only",,"Yes",,,"2 columns with left bar",
"Preschool Toys","Default Category/Toys, Kids & Baby/Toys & Games",,"Yes",,,,,,,"Yes","Products only",,"Yes",,,"2 columns with left bar",
"Action Figures","Default Category/Toys, Kids & Baby/Toys & Games",,"Yes",,,,,,,"Yes","Products only",,"Yes",,,"2 columns with left bar",
"Dolls & Accessories","Default Category/Toys, Kids & Baby/Toys & Games",,"Yes",,,,,,,"Yes","Products only",,"Yes",,,"2 columns with left bar",
"Arts & Crafts","Default Category/Toys, Kids & Baby/Toys & Games",,"Yes",,,,,,,"Yes","Products only",,"Yes",,,"2 columns with left bar",
"Construction, Building Sets, & Blocks","Default Category/Toys, Kids & Baby/Toys & Games",,"Yes",,,,,,,"Yes","Products only",,"Yes",,,"2 columns with left bar",
"Outdoor Play","Default Category/Toys, Kids & Baby/Toys & Games",,"Yes",,,,,,,"Yes","Products only",,"Yes",,,"2 columns with left bar",
"Play Vehicles","Default Category/Toys, Kids & Baby/Toys & Games",,"Yes",,,,,,,"Yes","Products only",,"Yes",,,"2 columns with left bar",
"Hobby","Default Category/Toys, Kids & Baby/Toys & Games",,"Yes",,,,,,,"Yes","Products only",,"Yes",,,"2 columns with left bar",
"Games","Default Category/Toys, Kids & Baby/Toys & Games",,"Yes",,,,,,,"Yes","Products only",,"Yes",,,"2 columns with left bar",
"Learning & Exploration","Default Category/Toys, Kids & Baby/Toys & Games",,"Yes",,,,,,,"Yes","Products only",,"Yes",,,"2 columns with left bar",
"Strollers","Default Category/Toys, Kids & Baby/Baby",,"Yes",,,,,,,"Yes","Products only",,"Yes",,,"2 columns with left bar",
"Car Seats","Default Category/Toys, Kids & Baby/Baby",,"Yes",,,,,,,"Yes","Products only",,"Yes",,,"2 columns with left bar",
"Nursery","Default Category/Toys, Kids & Baby/Baby",,"Yes",,,,,,,"Yes","Products only",,"Yes",,,"2 columns with left bar",
"Gear","Default Category/Toys, Kids & Baby/Baby",,"Yes",,,,,,,"Yes","Products only",,"Yes",,,"2 columns with left bar",
"Feeding","Default Category/Toys, Kids & Baby/Baby",,"Yes",,,,,,,"Yes","Products only",,"Yes",,,"2 columns with left bar",
"Dipering","Default Category/Toys, Kids & Baby/Baby",,"Yes",,,,,,,"Yes","Products only",,"Yes",,,"2 columns with left bar",
"Gift & Toys","Default Category/Toys, Kids & Baby/Baby",,"Yes",,,,,,,"Yes","Products only",,"Yes",,,"2 columns with left bar",
"Health & Safety","Default Category/Toys, Kids & Baby/Baby",,"Yes",,,,,,,"Yes","Products only",,"Yes",,,"2 columns with left bar",
"Girls","Default Category/Toys, Kids & Baby/Kids Clothing",,"Yes",,,,,,,"Yes","Products only",,"Yes",,,"2 columns with left bar",
"Boys","Default Category/Toys, Kids & Baby/Kids Clothing",,"Yes",,,,,,,"Yes","Products only",,"Yes",,,"2 columns with left bar",
"Essentials","Default Category/Toys, Kids & Baby/Baby Clothing",,"Yes",,,,,,,"Yes","Products only",,"Yes",,,"2 columns with left bar",
"Sets","Default Category/Toys, Kids & Baby/Baby Clothing",,"Yes",,,,,,,"Yes","Products only",,"Yes",,,"2 columns with left bar",
"Dresses","Default Category/Toys, Kids & Baby/Baby Clothing",,"Yes",,,,,,,"Yes","Products only",,"Yes",,,"2 columns with left bar",
"Sleepwers","Default Category/Toys, Kids & Baby/Baby Clothing",,"Yes",,,,,,,"Yes","Products only",,"Yes",,,"2 columns with left bar",
"Accessories","Default Category/Toys, Kids & Baby/Baby Clothing",,"Yes",,,,,,,"Yes","Products only",,"Yes",,,"2 columns with left bar",
"Kid's Watches","Default Category/Toys, Kids & Baby/Baby Clothing",,"Yes",,,,,,,"Yes","Products only",,"Yes",,,"2 columns with left bar",
"Clothing","Default Category/Clothing, Shoes & Jewelry/Women",,"Yes",,,,,,,"Yes","Products only",,"Yes",,,"2 columns with left bar",
"Shoes","Default Category/Clothing, Shoes & Jewelry/Women",,"Yes",,,,,,,"Yes","Products only",,"Yes",,,"2 columns with left bar",
"Bages","Default Category/Clothing, Shoes & Jewelry/Women",,"Yes",,,,,,,"Yes","Products only",,"Yes",,,"2 columns with left bar",
"Accessories","Default Category/Clothing, Shoes & Jewelry/Women",,"Yes",,,,,,,"Yes","Products only",,"Yes",,,"2 columns with left bar",
"Jewelry","Default Category/Clothing, Shoes & Jewelry/Women",,"Yes",,,,,,,"Yes","Products only",,"Yes",,,"2 columns with left bar",
"Watches","Default Category/Clothing, Shoes & Jewelry/Women",,"Yes",,,,,,,"Yes","Products only",,"Yes",,,"2 columns with left bar",
"Men Clothes","Default Category/Clothing, Shoes & Jewelry/Men",,"Yes",,,,,,,"Yes","Products only",,"Yes",,,"2 columns with left bar",
"Men's Shoes","Default Category/Clothing, Shoes & Jewelry/Men",,"Yes",,,,,,,"Yes","Products only",,"Yes",,,"2 columns with left bar",
"Bages","Default Category/Clothing, Shoes & Jewelry/Men",,"Yes",,,,,,,"Yes","Products only",,"Yes",,,"2 columns with left bar",
"Watches","Default Category/Clothing, Shoes & Jewelry/Men",,"Yes",,,,,,,"Yes","Products only",,"Yes",,,"2 columns with left bar",
"Accessories","Default Category/Clothing, Shoes & Jewelry/Men",,"Yes",,,,,,,"Yes","Products only",,"Yes",,,"2 columns with left bar",
"Weights","Default Category/Sport & Outdoors/Exercise & Fitness",,"Yes",,,,,,,"Yes","Products only",,"Yes",,,"2 columns with left bar",
"Treadmills","Default Category/Sport & Outdoors/Exercise & Fitness",,"Yes",,,,,,,"Yes","Products only",,"Yes",,,"2 columns with left bar",
"Exercise Bikes","Default Category/Sport & Outdoors/Exercise & Fitness",,"Yes",,,,,,,"Yes","Products only",,"Yes",,,"2 columns with left bar",
"Fitness DVD and Videos","Default Category/Sport & Outdoors/Exercise & Fitness",,"Yes",,,,,,,"Yes","Products only",,"Yes",,,"2 columns with left bar",
"Fitness Technology","Default Category/Sport & Outdoors/Exercise & Fitness",,"Yes",,,,,,,"Yes","Products only",,"Yes",,,"2 columns with left bar",
"Exercies Equipment","Default Category/Sport & Outdoors/Exercise & Fitness",,"Yes",,,,,,,"Yes","Products only",,"Yes",,,"2 columns with left bar",
"Tents","Default Category/Sport & Outdoors/Outdoor Recreation",,"Yes",,,,,,,"Yes","Products only",,"Yes",,,"2 columns with left bar",
"Sleeping Bags","Default Category/Sport & Outdoors/Outdoor Recreation",,"Yes",,,,,,,"Yes","Products only",,"Yes",,,"2 columns with left bar",
"Backpacks & Bags","Default Category/Sport & Outdoors/Outdoor Recreation",,"Yes",,,,,,,"Yes","Products only",,"Yes",,,"2 columns with left bar",
"Knives & Tools","Default Category/Sport & Outdoors/Outdoor Recreation",,"Yes",,,,,,,"Yes","Products only",,"Yes",,,"2 columns with left bar",
"Bikes","Default Category/Sport & Outdoors/Cycling",,"Yes",,,,,,,"Yes","Products only",,"Yes",,,"2 columns with left bar",
"Kids Bikes","Default Category/Sport & Outdoors/Cycling",,"Yes",,,,,,,"Yes","Products only",,"Yes",,,"2 columns with left bar",
"Accessories","Default Category/Sport & Outdoors/Cycling",,"Yes",,,,,,,"Yes","Products only",,"Yes",,,"2 columns with left bar",
"Components and Parts","Default Category/Sport & Outdoors/Cycling",,"Yes",,,,,,,"Yes","Products only",,"Yes",,,"2 columns with left bar",
"Athletic Clothing","Default Category/Sport & Outdoors/Athletic & Outdoor Clothing",,"Yes",,,,,,,"Yes","Products only",,"Yes",,,"2 columns with left bar",
"Exercise & Fitness","Default Category/Sport & Outdoors/Athletic & Outdoor Clothing",,"Yes",,,,,,,"Yes","Products only",,"Yes",,,"2 columns with left bar",
"Running","Default Category/Sport & Outdoors/Athletic & Outdoor Clothing",,"Yes",,,,,,,"Yes","Products only",,"Yes",,,"2 columns with left bar",
"Cycling","Default Category/Sport & Outdoors/Athletic & Outdoor Clothing",,"Yes",,,,,,,"Yes","Products only",,"Yes",,,"2 columns with left bar",
"Golf","Default Category/Sport & Outdoors/Athletic & Outdoor Clothing",,"Yes",,,,,,,"Yes","Products only",,"Yes",,,"2 columns with left bar",
"Yoga","Default Category/Sport & Outdoors/Athletic & Outdoor Clothing",,"Yes",,,,,,,"Yes","Products only",,"Yes",,,"2 columns with left bar",
"Fishing","Default Category/Sport & Outdoors/Athletic & Outdoor Clothing",,"Yes",,,,,,,"Yes","Products only",,"Yes",,,"2 columns with left bar",
"Hunting","Default Category/Sport & Outdoors/Athletic & Outdoor Clothing",,"Yes",,,,,,,"Yes","Products only",,"Yes",,,"2 columns with left bar",
"Exercise & Fitness","Default Category/Sport & Outdoors/Sports Shoes",,"Yes",,,,,,,"Yes","Products only",,"Yes",,,"2 columns with left bar",
"Soccer","Default Category/Sport & Outdoors/Sports Shoes",,"Yes",,,,,,,"Yes","Products only",,"Yes",,,"2 columns with left bar",
"Footballs","Default Category/Sport & Outdoors/Sports Collectibles",,"Yes",,,,,,,"Yes","Products only",,"Yes",,,"2 columns with left bar",
"Basketballs","Default Category/Sport & Outdoors/Sports Collectibles",,"Yes",,,,,,,"Yes","Products only",,"Yes",,,"2 columns with left bar",
"Replacement Parts","Default Category/Automotive & Industrial/Automotive Parts & Accessories",,"Yes",,,,,,,"Yes","Products only",,"Yes",,,"2 columns with left bar",
"Tools & Equipment","Default Category/Automotive & Industrial/Automotive Parts & Accessories",,"Yes",,,,,,,"Yes","Products only",,"Yes",,,"2 columns with left bar",
"Interior Accessories","Default Category/Automotive & Industrial/Automotive Parts & Accessories",,"Yes",,,,,,,"Yes","Products only",,"Yes",,,"2 columns with left bar",
"Exterior Accessories","Default Category/Automotive & Industrial/Automotive Parts & Accessories",,"Yes",,,,,,,"Yes","Products only",,"Yes",,,"2 columns with left bar",
"Wheels & Tires","Default Category/Automotive & Industrial/Automotive Parts & Accessories",,"Yes",,,,,,,"Yes","Products only",,"Yes",,,"2 columns with left bar",
"Car Care","Default Category/Automotive & Industrial/Automotive Parts & Accessories",,"Yes",,,,,,,"Yes","Products only",,"Yes",,,"2 columns with left bar",
"Oils, Coolants & Fluids","Default Category/Automotive & Industrial/Automotive Parts & Accessories",,"Yes",,,,,,,"Yes","Products only",,"Yes",,,"2 columns with left bar",
"Car Stereo","Default Category/Automotive & Industrial/Car Electronics & GPS",,"Yes",,,,,,,"Yes","Products only",,"Yes",,,"2 columns with left bar",
"Car Video","Default Category/Automotive & Industrial/Car Electronics & GPS",,"Yes",,,,,,,"Yes","Products only",,"Yes",,,"2 columns with left bar",
"Car Speakers","Default Category/Automotive & Industrial/Car Electronics & GPS",,"Yes",,,,,,,"Yes","Products only",,"Yes",,,"2 columns with left bar",
"Car Amplifiers","Default Category/Automotive & Industrial/Car Electronics & GPS",,"Yes",,,,,,,"Yes","Products only",,"Yes",,,"2 columns with left bar",
"Car Subwoofers","Default Category/Automotive & Industrial/Car Electronics & GPS",,"Yes",,,,,,,"Yes","Products only",,"Yes",,,"2 columns with left bar",
"Car Safety & Security","Default Category/Automotive & Industrial/Car Electronics & GPS",,"Yes",,,,,,,"Yes","Products only",,"Yes",,,"2 columns with left bar",
"Radio","Default Category/Automotive & Industrial/Car Electronics & GPS",,"Yes",,,,,,,"Yes","Products only",,"Yes",,,"2 columns with left bar",
"GPS","Default Category/Automotive & Industrial/Car Electronics & GPS",,"Yes",,,,,,,"Yes","Products only",,"Yes",,,"2 columns with left bar",
"Tires","Default Category/Automotive & Industrial/Tires & Wheels",,"Yes",,,,,,,"Yes","Products only",,"Yes",,,"2 columns with left bar",
"Wheels","Default Category/Automotive & Industrial/Tires & Wheels",,"Yes",,,,,,,"Yes","Products only",,"Yes",,,"2 columns with left bar",
"Motorcycle & ATV Tires","Default Category/Automotive & Industrial/Tires & Wheels",,"Yes",,,,,,,"Yes","Products only",,"Yes",,,"2 columns with left bar",
"Tire Accessories","Default Category/Automotive & Industrial/Tires & Wheels",,"Yes",,,,,,,"Yes","Products only",,"Yes",,,"2 columns with left bar",
"Wheels Accessories","Default Category/Automotive & Industrial/Tires & Wheels",,"Yes",,,,,,,"Yes","Products only",,"Yes",,,"2 columns with left bar",
"Tire & Wheel Repair","Default Category/Automotive & Industrial/Tires & Wheels",,"Yes",,,,,,,"Yes","Products only",,"Yes",,,"2 columns with left bar",
"Helmets","Default Category/Automotive & Industrial/Motorcycle Parts and Accessories",,"Yes",,,,,,,"Yes","Products only",,"Yes",,,"2 columns with left bar",
"Parts","Default Category/Automotive & Industrial/Motorcycle Parts and Accessories",,"Yes",,,,,,,"Yes","Products only",,"Yes",,,"2 columns with left bar",
"Accessories","Default Category/Automotive & Industrial/Motorcycle Parts and Accessories",,"Yes",,,,,,,"Yes","Products only",,"Yes",,,"2 columns with left bar",
"Jackets & Jerseys","Default Category/Automotive & Industrial/Motorcycle Parts and Accessories",,"Yes",,,,,,,"Yes","Products only",,"Yes",,,"2 columns with left bar",
"Protective Gear","Default Category/Automotive & Industrial/Motorcycle Parts and Accessories",,"Yes",,,,,,,"Yes","Products only",,"Yes",,,"2 columns with left bar",
"Pants","Default Category/Automotive & Industrial/Motorcycle Parts and Accessories",,"Yes",,,,,,,"Yes","Products only",,"Yes",,,"2 columns with left bar",
"Tubing, Pipes and Hoses","Default Category/Automotive & Industrial/Industrial Supplies",,"Yes",,,,,,,"Yes","Products only",,"Yes",,,"2 columns with left bar",
"Fittings and Valves","Default Category/Automotive & Industrial/Industrial Supplies",,"Yes",,,,,,,"Yes","Products only",,"Yes",,,"2 columns with left bar",
"Materials","Default Category/Automotive & Industrial/Industrial Supplies",,"Yes",,,,,,,"Yes","Products only",,"Yes",,,"2 columns with left bar",
"Fasteners","Default Category/Automotive & Industrial/Industrial Supplies",,"Yes",,,,,,,"Yes","Products only",,"Yes",,,"2 columns with left bar",
"Power Transmission","Default Category/Automotive & Industrial/Industrial Supplies",,"Yes",,,,,,,"Yes","Products only",,"Yes",,,"2 columns with left bar",
"Bearings","Default Category/Automotive & Industrial/Industrial Supplies",,"Yes",,,,,,,"Yes","Products only",,"Yes",,,"2 columns with left bar",
"Measurement and Inspection","Default Category/Automotive & Industrial/Industrial Supplies",,"Yes",,,,,,,"Yes","Products only",,"Yes",,,"2 columns with left bar",
"Metalworking","Default Category/Automotive & Industrial/Industrial Supplies",,"Yes",,,,,,,"Yes","Products only",,"Yes",,,"2 columns with left bar",
"Tapes, Adhesives and Sealants","Default Category/Automotive & Industrial/Industrial Supplies",,"Yes",,,,,,,"Yes","Products only",,"Yes",,,"2 columns with left bar",
"Electronic Components","Default Category/Automotive & Industrial/Industrial Supplies",,"Yes",,,,,,,"Yes","Products only",,"Yes",,,"2 columns with left bar",
"Janitorial and Sanitation","Default Category/Automotive & Industrial/Industrial Supplies",,"Yes",,,,,,,"Yes","Products only",,"Yes",,,"2 columns with left bar",
"Gloves","Default Category/Automotive & Industrial/Safety",,"Yes",,,,,,,"Yes","Products only",,"Yes",,,"2 columns with left bar",
"Safety Glasses","Default Category/Automotive & Industrial/Safety",,"Yes",,,,,,,"Yes","Products only",,"Yes",,,"2 columns with left bar",
"Ear Protection","Default Category/Automotive & Industrial/Safety",,"Yes",,,,,,,"Yes","Products only",,"Yes",,,"2 columns with left bar",
"Hardhats","Default Category/Automotive & Industrial/Safety",,"Yes",,,,,,,"Yes","Products only",,"Yes",,,"2 columns with left bar",
"Coveralls","Default Category/Automotive & Industrial/Safety",,"Yes",,,,,,,"Yes","Products only",,"Yes",,,"2 columns with left bar",
"Work Shoes & Boots","Default Category/Automotive & Industrial/Safety",,"Yes",,,,,,,"Yes","Products only",,"Yes",,,"2 columns with left bar",
"Respirators","Default Category/Automotive & Industrial/Safety",,"Yes",,,,,,,"Yes","Products only",,"Yes",,,"2 columns with left bar",
"Safety Vests","Default Category/Automotive & Industrial/Safety",,"Yes",,,,,,,"Yes","Products only",,"Yes",,,"2 columns with left bar",
"Fire Resistant Clothing","Default Category/Automotive & Industrial/Safety",,"Yes",,,,,,,"Yes","Products only",,"Yes",,,"2 columns with left bar",
"Rainwear","Default Category/Automotive & Industrial/Safety",,"Yes",,,,,,,"Yes","Products only",,"Yes",,,"2 columns with left bar",
"Lab Coats","Default Category/Automotive & Industrial/Safety",,"Yes",,,,,,,"Yes","Products only",,"Yes",,,"2 columns with left bar",
"Fire Extinguishers","Default Category/Automotive & Industrial/Safety",,"Yes",,,,,,,"Yes","Products only",,"Yes",,,"2 columns with left bar",
"Floor Matting","Default Category/Automotive & Industrial/Safety",,"Yes",,,,,,,"Yes","Products only",,"Yes",,,"2 columns with left bar",
"Gas Detectors","Default Category/Automotive & Industrial/Safety",,"Yes",,,,,,,"Yes","Products only",,"Yes",,,"2 columns with left bar",
